{
  "pipelines": {
    "1": {
      "id": "1",
      "title": "Pipeline 1",
      "stageIds": ["1", "2", "3"]
    },
    "2": {
      "id": "2",
      "title": "Pipeline 2",
      "stageIds": ["4", "5"]
    }
  },
  "stages": {
    "1": {
      "id": "1",
      "title": "À recontrer",
      "candidateIds": ["4", "1", "2"]
    },
    "2": {
      "id": "2",
      "title": "Entretien",
      "candidateIds": ["5"]
    },
    "3": {
      "id": "3",
      "title": "Proposition",
      "candidateIds": ["3"]
    },
    "4": {
      "id": "4",
      "title": "À recontrer",
      "candidateIds": ["5", "6", "7"]
    },
    "5": {
      "id": "5",
      "title": "Entretien",
      "candidateIds": ["1", "8"]
    }
  },
  "candidates": {
    "1": {
      "id": "1",
      "name": "Kévin Leroy"
    },
    "2": {
      "id": "2",
      "name": "Audrey Baron"
    },
    "3": {
      "id": "3",
      "name": "Pierre-Gaël Pasquiou"
    },
    "4": {
      "id": "4",
      "name": "Zoé Goldschmidt"
    },
    "5": {
      "id": "5",
      "name": "Anne Claire Soulé"
    },
    "6": {
      "id": "6",
      "name": "Kévin Leroy"
    },
    "7": {
      "id": "7",
      "name": "Audrey Baron"
    },
    "8": {
      "id": "8",
      "name": "Pierre-Gaël Pasquiou"
    },
    "9": {
      "id": "9",
      "name": "Zoé Goldschmidt"
    },
    "10": {
      "id": "10",
      "name": "Anne Claire Soulé"
    }
  }
}
